id,name,model_id:id,group_id:id,perm_read,perm_write,perm_create,perm_unlink

access_sales_target_user,sales.target,model_sales_target,group_sales_target_user,1,1,1,0
access_sales_target_rm_user,sales.target.rm,model_sales_target_rm,group_sales_target_user,1,1,1,0
access_sales_target_holiday_user,sales.target.holiday,model_sales_target_holiday,group_sales_target_user,1,1,1,0

access_retail_dashboard_report_wiz,retail.dashboard.report.wiz,model_retail_dashboard_report_wiz,group_retail_dashboard,1,1,1,0

access_retail_dashboard,retail.dashboard,model_retail_dashboard,group_retail_dashboard,1,1,1,0

access_unique_customer_report_wiz,unique.customer.report.filter,model_unique_customer_report_filter,group_unique_customer,1,1,1,0

access_unique_customer_order_report_wiz,unique.customer.order.report.filter,model_unique_customer_order_report_filter,group_unique_customer_order,1,1,1,0