id,name,model_id:id,group_id:id,perm_read,perm_write,perm_create,perm_unlink
access_partial_delivery_create,partial.delivery.create,model_partial_delivery_create,group_partial_delivery_create_user,1,1,1,1
access_partial_delivery_create_line,partial.delivery.create.line,model_partial_delivery_create_line,group_partial_delivery_create_user,1,1,1,1
