id,name,model_id:id,group_id:id,perm_read,perm_write,perm_create,perm_unlink
access_management_dashboard,management.dashboard,model_management_dashboard,group_management_dashboard,1,1,1,1

access_retail_dashboard,retail.dashboard,model_retail_dashboard,group_all_retail_dashboard,1,1,1,1

access_retail_dashboard_customer_base,retail.dashboard.customer.base,model_retail_dashboard_customer_base,group_all_retail_dashboard,1,1,1,1
