id,name,model_id:id,group_id:id,perm_read,perm_write,perm_create,perm_unlink
access_packing_order_transfer_invoice_list,packing.order.transfer.invoice.list,model_packing_order_transfer_invoice_list,group_stock_transfer_and_invoice_create,1,1,1,1
access_auto_stock_transfer_from_pack,auto.stock.transfer.from.pack,model_auto_stock_transfer_from_pack,group_stock_transfer_and_invoice_create,1,1,1,1
access_auto_stock_transfer_from_pack_log,auto.stock.transfer.from.pack.log,model_auto_stock_transfer_from_pack_log,group_stock_transfer_and_invoice_create,1,1,1,1
access_auto_invoice_create_from_pack_log,auto.invoice.create.from.pack.log,model_auto_invoice_create_from_pack_log,group_stock_transfer_and_invoice_create,1,1,1,1