id,name,model_id:id,group_id:id,perm_read,perm_write,perm_create,perm_unlink
access_partial_receive_order_close,partially.received.order.close,model_partially_received_order_close,group_receive_order_close_admin,1,1,1,1
access_partial_receive_order_close,partially.received.order.close,model_partially_received_order_close,group_receive_order_close_manager,1,1,1,0
